[
  {
    "title": "Apple iPhone 14 Pro Max",
    "prise": "1159$",
    "imageUrl": "https://assets.mmsrg.com/isr/166325/c1/-/ASSET_MMS_97280076/fee_786_587_png",
    "code": "2832437",
    "color": "gold"
  },
  {
    "title": "Apple iPhone 14 Pro Max",
    "prise": "1159$",
    "imageUrl": "https://assets.mmsrg.com/isr/166325/c1/-/ASSET_MMS_97280076/fee_786_587_png",
    "code": "2831287",
    "color": "gold"
  },
  {
    "title": "Apple iPhone 14 Pro Max",
    "prise": "1159$",
    "imageUrl": "https://assets.mmsrg.com/isr/166325/c1/-/ASSET_MMS_97280076/fee_786_587_png",
    "code": "2856787",
    "color": "gold"
  },
  {
    "title": "Apple iPhone 14 Pro Max",
    "prise": "1159$",
    "imageUrl": "https://assets.mmsrg.com/isr/166325/c1/-/ASSET_MMS_97280076/fee_786_587_png",
    "code": "2867787",
    "color": "gold"
  },
  {
    "title": "Apple iPhone 14 Pro Max",
    "prise": "1159$",
    "imageUrl": "https://assets.mmsrg.com/isr/166325/c1/-/ASSET_MMS_97280076/fee_786_587_png",
    "code": "2812787",
    "color": "gold"
  },
  {
    "title": "Apple iPhone 14 Pro Max",
    "prise": "1159$",
    "imageUrl": "https://assets.mmsrg.com/isr/166325/c1/-/ASSET_MMS_97280076/fee_786_587_png",
    "code": "2832097",
    "color": "gold"
  },
  {
    "title": "Apple iPhone 14 Pro Max",
    "prise": "1159$",
    "imageUrl": "https://assets.mmsrg.com/isr/166325/c1/-/ASSET_MMS_97280076/fee_786_587_png",
    "code": "2832177",
    "color": "gold"
  },
  {
    "title": "Apple iPhone 14 Pro Max",
    "prise": "1159$",
    "imageUrl": "https://assets.mmsrg.com/isr/166325/c1/-/ASSET_MMS_97280076/fee_786_587_png",
    "code": "2272787",
    "color": "gold"
  },
  {
    "title": "Apple iPhone 14 Pro Max",
    "prise": "1159$",
    "imageUrl": "https://assets.mmsrg.com/isr/166325/c1/-/ASSET_MMS_97280076/fee_786_587_png",
    "code": "2845787",
    "color": "gold"
  },
  {
    "title": "Apple iPhone 14 Pro Max",
    "prise": "1159$",
    "imageUrl": "https://assets.mmsrg.com/isr/166325/c1/-/ASSET_MMS_97280076/fee_786_587_png",
    "code": "2832977",
    "color": "gold"
  },
  {
    "title": "Apple iPhone 14 Pro Max",
    "prise": "1159$",
    "imageUrl": "https://assets.mmsrg.com/isr/166325/c1/-/ASSET_MMS_97280076/fee_786_587_png",
    "code": "28012787",
    "color": "gold"
  }
]